{
    "participantID": "P1",
    "techniqueOrder": ["keyword", "redict"],
    "keyword": {
        "_1EU": {
            "T1": {
                "_meta": "KEY | 1EU | T1 | <A>",
                "trigger": "A",
                "baseString": "A preposition is a word that connects two phrases.",
                "testString": "A preposition a word that connects two phrases."
            },
            "T2": {
                "_meta": "KEY | 1EU | T2 | <D>",
                "trigger": "D",
                "baseString": "They prepared the cotton candy in an old fashioned way.",
                "testString": "They prepared the cotton cotton candy in an old fashioned way."
            },
            "T3": {
                "_meta": "KEY | 1EU | T3 | <R>",
                "trigger": "R",
                "baseString": "Brent and Ben are going deer hunting tomorrow morning.",
                "testString": "Brent and Ben are going deer painting tomorrow morning."
            }
        },
        "_2EU": {
            "T1": {
                "_meta": "KEY | 2EU | T1 | <DD> | JS'",
                "trigger": "DD",
                "config": "JS'",
                "baseString": "The robotics team worked hard to produce a high functioning robot.",
                "testString": "The robotics team worked hard hard to to produce a high functioning robot."
            },
            "T2": {
                "_meta": "KEY | 2EU | T2 | <AR> | JS'",
                "trigger": "AR",
                "config": "JS'",
                "baseString": "The dedicated office worker reports early to the office every day.",
                "testString": "The dedicated office worker reports by the office every day."
            },
            "T3": {
                "_meta": "KEY | 2EU | T3 | <AR> | J'S",
                "trigger": "AR",
                "config": "J'S",
                "baseString": "He displayed and sold the limited edition robots at a smaller price.",
                "testString": "He and told the limited edition robots at a smaller price."
            },
            "T4": {
                "_meta": "KEY | 2EU | T4 | <DD> | J'S",
                "trigger": "DD",
                "config": "J'S",
                "baseString": "Last night my friends and I had dinner at a fancy restaurant.",
                "testString": "Last night my crazy friends and me I had dinner at a fancy restaurant."
            },
            "T5": {
                "_meta": "KEY | 2EU | T5 | <AR> | JS",
                "trigger": "AR",
                "config": "JS",
                "baseString": "Joe drove to the railway station at the outskirts of the city.",
                "testString": "Joe drove to the hospital at the outskirts of the city."
            },
            "T6": {
                "_meta": "KEY | 2EU | T6 | <DD> | JS",
                "trigger": "DD",
                "config": "JS",
                "baseString": "The man stood up to leave the dinner party before it was too late.",
                "testString": "The man stood up to leave the I guess dinner party before it was too late."
            },
            "T7": {
                "_meta": "KEY | 2EU | T7 | <DD> | J'S'",
                "trigger": "DD",
                "config": "J'S'",
                "baseString": "It rained quite heavily in the mountains for the past two weeks.",
                "testString": "It rained quite strongly heavily in the hills mountains for the past two weeks."
            },
            "T8": {
                "_meta": "KEY | 2EU | T8 | <AR> | J'S'",
                "trigger": "AR",
                "config": "J'S'",
                "baseString": "Paul has read enough good novels to know the nuances of creative writing.",
                "testString": "Paul has read good novels to knowing the nuances of creative writing."
            }
        }
    },
    "redict": {
        "_1EU": {
            "T1": {
                "_meta": "REDICT | 1EU | T1 | <A>",
                "trigger": "A",
                "baseString": "Justin sings and dances in the studio room every single day.",
                "testString": "Justin sings and dances in the room every single day."
            },
            "T2": {
                "_meta": "REDICT | 1EU | T2 | <R>",
                "trigger": "R",
                "baseString": "Both brother and sister play computer games after school.",
                "testString": "Both brother and sister play mathematics games after school."
            },
            "T3": {
                "_meta": "REDICT | 1EU | T3 | <D>",
                "trigger": "D",
                "baseString": "The students generally hate to take exams in the afternoon.",
                "testString": "The students generally hate to take easy exams in the afternoon."
            }
        },
        "_2EU": {
            "T1": {
                "_meta": "REDICT | 2EU | T1 | <RR> | JS'",
                "trigger": "RR",
                "config": "JS'",
                "baseString": "Swift is one of the first singers to sell an album on its first day.",
                "testString": "Swift is one of the first dancers for sell an album on its first day."
            },
            "T2": {
                "_meta": "REDICT | 2EU | T2 | <RD> | JS'",
                "trigger": "RD",
                "config": "JS'",
                "baseString": "Perched on a branch the little eagle shouted loudly to call its mother.",
                "testString": "Perched on a branch the little seagull loudly shouted loudly to call its mother."
            },
            "T3": {
                "_meta": "REDICT | 2EU | T3 | <RD> | J'S",
                "trigger": "RD",
                "config": "J'S",
                "baseString": "Little Red Riding Hood was carrying a basket of flowers to her house.",
                "testString": "Little Red Riding Hood was carrying a casket of yellow flowers to her house."
            },
            "T4": {
                "_meta": "REDICT | 2EU | T4 | <RR> | J'S",
                "trigger": "RR",
                "config": "J'S",
                "baseString": "We could see the dust and grime stuck on his white cotton pants.",
                "testString": "We could see the trust and crime stuck on his white cotton pants."
            },
            "T5": {
                "_meta": "REDICT | 2EU | T5 | <RD> | JS",
                "trigger": "RD",
                "config": "JS",
                "baseString": "Moving up the social ladder brings unfortunate consequences for many.",
                "testString": "Moving up the public wooden ladder brings unfortunate consequences for many."
            },
            "T6": {
                "_meta": "REDICT | 2EU | T6 | <RR> | JS",
                "trigger": "RR",
                "config": "JS",
                "baseString": "Snow White and Cinderella merrily danced all night at the ballroom.",
                "testString": "Snow White and Cinderella happily sang all night at the ballroom."
            },
            "T7": {
                "_meta": "REDICT | 2EU | T7 | <RR> | J'S'",
                "trigger": "RR",
                "config": "J'S'",
                "baseString": "The management deeply apologized for their misconduct with the visitor.",
                "testString": "The management quickly apologized for their behavior with the visitor."
            },
            "T8": {
                "_meta": "REDICT | 2EU | T8 | <RD> | J'S'",
                "trigger": "RD",
                "config": "J'S'",
                "baseString": "Look under the mattress in the wardrobe for the hidden stash of cash.",
                "testString": "Look under the tigress in the broken wardrobe for the hidden stash of cash."
            }
        }
    }
}