{
    "participantID": "P7",
    "techniqueOrder": ["keyword", "redict"],
    "redict": {
        "_1EU": {
            "T1": {
                "_meta": "REDICT | 1EU | T1 | <R>",
                "trigger": "R",
                "baseString": "A preposition is a word that connects two phrases.",
                "testString": "A preposition is a sentence that connects two phrases."
            },
            "T2": {
                "_meta": "REDICT | 1EU | T2 | <A>",
                "trigger": "A",
                "baseString": "They prepared the cotton candy in an old fashioned way.",
                "testString": "They prepared the candy in an old fashioned way."
            },
            "T3": {
                "_meta": "REDICT | 1EU | T3 | <D>",
                "trigger": "D",
                "baseString": "Brent and Ben are going deer hunting tomorrow morning.",
                "testString": "Brent and Ben are going deer hunting hunting tomorrow morning."
            }
        },
        "_2EU": {
            "T1": {
                "_meta": "REDICT | 2EU | T1 | <AA> | J'S",
                "trigger": "AA",
                "config": "J'S",
                "baseString": "The robotics team worked hard to produce a high functioning robot.",
                "testString": "The robotics team worked hard to produce a functioning."
            },
            "T2": {
                "_meta": "REDICT | 2EU | T2 | <AD> | J'S",
                "trigger": "AD",
                "config": "J'S",
                "baseString": "The dedicated office worker reports early to the office every day.",
                "testString": "The dedicated office worker early late to the office every day."
            },
            "T3": {
                "_meta": "REDICT | 2EU | T3 | <AD> | JS",
                "trigger": "AD",
                "config": "JS",
                "baseString": "He displayed and sold the limited edition robots at a smaller price.",
                "testString": "He but and sold the limited edition robots at a smaller price."
            },
            "T4": {
                "_meta": "REDICT | 2EU | T4 | <AA> | JS",
                "trigger": "AA",
                "config": "JS",
                "baseString": "Last night my friends and I had dinner at a fancy restaurant.",
                "testString": "Last night my I had dinner at a fancy restaurant."
            },
            "T5": {
                "_meta": "REDICT | 2EU | T5 | <AD> | J'S'",
                "trigger": "AD",
                "config": "J'S'",
                "baseString": "Joe drove to the railway station at the outskirts of the city.",
                "testString": "Joe drove to the railway at the remote outskirts of the city."
            },
            "T6": {
                "_meta": "REDICT | 2EU | T6 | <AA> | J'S'",
                "trigger": "AA",
                "config": "J'S'",
                "baseString": "The man stood up to leave the dinner party before it was too late.",
                "testString": "The man stood up to the dinner party it was too late."
            },
            "T7": {
                "_meta": "REDICT | 2EU | T7 | <AA> | JS'",
                "trigger": "AA",
                "config": "JS'",
                "baseString": "It rained quite heavily in the mountains for the past two weeks.",
                "testString": "It rained quite the mountains for the past two weeks."
            },
            "T8": {
                "_meta": "REDICT | 2EU | T8 | <AD> | JS'",
                "trigger": "AD",
                "config": "JS'",
                "baseString": "Paul has read enough good novels to know the nuances of creative writing.",
                "testString": "Paul has read enough good to to know the nuances of creative writing."
            }
        }
    },
    "keyword": {
        "_1EU": {
            "T1": {
                "_meta": "KEY | 1EU | T1 | <A>",
                "trigger": "A",
                "baseString": "Justin sings and dances in the studio room every single day.",
                "testString": "Justin sings and dances in the room every single day."
            },
            "T2": {
                "_meta": "KEY | 1EU | T2 | <R>",
                "trigger": "R",
                "baseString": "Both brother and sister play computer games after school.",
                "testString": "Both brother and sister play football games after school."
            },
            "T3": {
                "_meta": "KEY | 1EU | T3 | <D>",
                "trigger": "D",
                "baseString": "The students generally hate to take exams in the afternoon.",
                "testString": "The students generally hate to take hard exams in the afternoon."
            }
        },
        "_2EU": {
            "T1": {
                "_meta": "KEY | 2EU | T1 | <RR> | J'S",
                "trigger": "RR",
                "config": "J'S",
                "baseString": "Swift is one of the first singers to sell an album on its first day.",
                "testString": "Swift is one of those first dancers to sell an album on its first day."
            },
            "T2": {
                "_meta": "KEY | 2EU | T2 | <AR> | J'S",
                "trigger": "AR",
                "config": "J'S",
                "baseString": "Perched on a branch the little eagle shouted loudly to call its mother.",
                "testString": "Perched on a branch little seagull shouted loudly to call its mother."
            },
            "T3": {
                "_meta": "KEY | 2EU | T3 | <AR> | JS",
                "trigger": "AR",
                "config": "JS",
                "baseString": "Little Red Riding Hood was carrying the basket of flowers to her house.",
                "testString": "Little Red Riding Hood was carrying the for flowers to her house."
            },
            "T4": {
                "_meta": "KEY | 2EU | T4 | <RR> | JS",
                "trigger": "RR",
                "config": "JS",
                "baseString": "We could see the dust and grime stuck on his white cotton pants.",
                "testString": "We could see the dust sand prime stuck on his white cotton pants."
            },
            "T5": {
                "_meta": "KEY | 2EU | T5 | <AR> | J'S'",
                "trigger": "AR",
                "config": "J'S'",
                "baseString": "Moving up the social ladder brings unfortunate consequences for many.",
                "testString": "Moving up the social brings positive consequences for many."
            },
            "T6": {
                "_meta": "KEY | 2EU | T6 | <RR> | J'S'",
                "trigger": "RR",
                "config": "J'S'",
                "baseString": "Snow White and Cinderella merrily danced all night at the ballroom.",
                "testString": "Snow White and Cinderella sadly danced all day at the ballroom."
            },
            "T7": {
                "_meta": "KEY | 2EU | T7 | <RR> | JS'",
                "trigger": "RR",
                "config": "JS'",
                "baseString": "The management deeply apologized for their misconduct with the visitor.",
                "testString": "The management deeply enjoyed at their misconduct with the visitor."
            },
            "T8": {
                "_meta": "KEY | 2EU | T8 | <AR> | JS'",
                "trigger": "AR",
                "config": "JS'",
                "baseString": "Look under the mattress in the wardrobe for the hidden stash of cash.",
                "testString": "Look under the on the wardrobe for the hidden stash of cash."
            }
        }
    }
}